^D:\КУРСЫ_ПО_ПРОГРАММИРОВАНИЮ\CONSOLEAPPLICATION5\CONSOLEAPPLICATION5\STDAFX.CPP
/c /ZI /nologo /W3 /WX- /diagnostics:classic /sdl /Od /Oy- /D WIN32 /D _DEBUG /D _CONSOLE /D _UNICODE /D UNICODE /Gm /EHsc /RTC1 /MDd /GS /fp:precise /Zc:wchar_t /Zc:forScope /Zc:inline /Yc"stdafx.h" /Fp"DEBUG\CONSOLEAPPLICATION5.PCH" /Fo"DEBUG\\" /Fd"DEBUG\VC141.PDB" /Gd /TP /analyze- D:\КУРСЫ_ПО_ПРОГРАММИРОВАНИЮ\CONSOLEAPPLICATION5\CONSOLEAPPLICATION5\STDAFX.CPP
^D:\КУРСЫ_ПО_ПРОГРАММИРОВАНИЮ\CONSOLEAPPLICATION5\CONSOLEAPPLICATION5\CONSOLEAPPLICATION5.CPP
/c /ZI /nologo /W3 /WX- /diagnostics:classic /sdl /Od /Oy- /D WIN32 /D _DEBUG /D _CONSOLE /D _UNICODE /D UNICODE /Gm /EHsc /RTC1 /MDd /GS /fp:precise /Zc:wchar_t /Zc:forScope /Zc:inline /Yu"stdafx.h" /Fp"DEBUG\CONSOLEAPPLICATION5.PCH" /Fo"DEBUG\\" /Fd"DEBUG\VC141.PDB" /Gd /TP /analyze- D:\КУРСЫ_ПО_ПРОГРАММИРОВАНИЮ\CONSOLEAPPLICATION5\CONSOLEAPPLICATION5\CONSOLEAPPLICATION5.CPP
