^D:\КУРСЫ_ПО_ПРОГРАММИРОВАНИЮ\CONSOLEAPPLICATION5\CONSOLEAPPLICATION5\STDAFX.CPP
D:\курсы_по_программированию\CONSOLEAPPLICATION5\CONSOLEAPPLICATION5\DEBUG\CONSOLEAPPLICATION5.PCH
D:\курсы_по_программированию\CONSOLEAPPLICATION5\CONSOLEAPPLICATION5\DEBUG\VC141.PDB
D:\курсы_по_программированию\CONSOLEAPPLICATION5\CONSOLEAPPLICATION5\DEBUG\VC141.IDB
D:\курсы_по_программированию\CONSOLEAPPLICATION5\CONSOLEAPPLICATION5\DEBUG\STDAFX.OBJ
^D:\КУРСЫ_ПО_ПРОГРАММИРОВАНИЮ\CONSOLEAPPLICATION5\CONSOLEAPPLICATION5\CONSOLEAPPLICATION5.CPP
D:\курсы_по_программированию\CONSOLEAPPLICATION5\CONSOLEAPPLICATION5\DEBUG\VC141.PDB
D:\курсы_по_программированию\CONSOLEAPPLICATION5\CONSOLEAPPLICATION5\DEBUG\VC141.IDB
D:\курсы_по_программированию\CONSOLEAPPLICATION5\CONSOLEAPPLICATION5\DEBUG\CONSOLEAPPLICATION5.OBJ
