﻿  ConsoleApplication5.cpp
d:\курсы_по_программированию\consoleapplication5\consoleapplication5\consoleapplication5.cpp(43): warning C4018: <: несоответствие типов со знаком и без знака
  ConsoleApplication5.vcxproj -> D:\курсы_по_программированию\ConsoleApplication5\Debug\ConsoleApplication5.exe
